{
  "project_info": {
    "project_number": "269257960655",
    "firebase_url": "https://beerme-283604.firebaseio.com",
    "project_id": "beerme-283604",
    "storage_bucket": "beerme-283604.appspot.com"
  },
  "client": [
    {
      "client_info": {
        "mobilesdk_app_id": "1:269257960655:android:10df1bce660288e3afdbba",
        "android_client_info": {
          "package_name": "com.example.beerme"
        }
      },
      "oauth_client": [
        {
          "client_id": "269257960655-occp394tbt1ap7fu9e5nviksp9muqmn6.apps.googleusercontent.com",
          "client_type": 1,
          "android_info": {
            "package_name": "com.example.beerme",
            "certificate_hash": "e6566ef7f94f4a47bc5f1dc049410dbad7f642df"
          }
        },
        {
          "client_id": "269257960655-ggos6dcc3071iolbapj643je5446qpgm.apps.googleusercontent.com",
          "client_type": 3
        }
      ],
      "api_key": [
        {
          "current_key": "AIzaSyD7ruoNar86hk8-sdl1-1Ib5225qHo46Zw"
        }
      ],
      "services": {
        "appinvite_service": {
          "other_platform_oauth_client": [
            {
              "client_id": "269257960655-ggos6dcc3071iolbapj643je5446qpgm.apps.googleusercontent.com",
              "client_type": 3
            }
          ]
        }
      }
    }
  ],
  "configuration_version": "1"
}